{
  "name": "TrainSpeedLimit",
  "version": "1.0.10",
  "factorio_version" : "1.1.0",
  "title": "Train Speed Limit",
  "author": "IceDev",
  "description": "Introduces configurable speed limit signs for trains.",
  "dependencies": ["base >= 1.1.0"]
}